<svg width="85" height="27" viewBox="0 0 85 27" fill="none" xmlns="http://www.w3.org/2000/svg">
<path d="M0.853876 23.5296C0.853876 21.6218 2.40645 20.0693 4.32432 20.0591C6.23204 20.0591 7.78459 21.6117 7.79474 23.5295C7.79474 25.4373 6.24217 26.9898 4.3243 27C2.40643 26.9898 0.853876 25.4373 0.853876 23.5296ZM0.84375 4.13777C0.84375 2.23005 2.39629 0.677508 4.31416 0.66736C6.22188 0.66736 7.77444 2.21992 7.78458 4.13779C7.79473 6.05565 6.23204 7.59805 4.31417 7.60819C2.40645 7.60819 0.853897 6.05564 0.84375 4.13777ZM20.1137 23.5296C20.1137 21.6218 21.6663 20.0693 23.5841 20.0591C25.4919 20.0591 27.0444 21.6117 27.0546 23.5296C27.0546 25.4373 25.502 26.9899 23.5841 27C21.6663 26.9899 20.1137 25.4373 20.1137 23.5296ZM20.1239 4.13777C20.1239 2.23005 21.6764 0.677509 23.5943 0.667362C25.502 0.667362 27.0546 2.21992 27.0647 4.13779C27.0647 6.04551 25.5122 7.59805 23.5943 7.6082C21.6663 7.6082 20.1137 6.05564 20.1239 4.13777ZM39.3736 23.5295C39.3736 21.6218 40.9261 20.0693 42.844 20.0591C44.7517 20.0591 46.3043 21.6117 46.3144 23.5296C46.3144 25.4373 44.7619 26.9898 42.844 27C40.9261 26.9898 39.3736 25.4373 39.3736 23.5295ZM39.3837 4.13777C39.3837 2.23005 40.9363 0.677506 42.8541 0.667358C44.7619 0.667358 46.3144 2.21992 46.3246 4.13778C46.3246 6.0455 44.772 7.59805 42.8542 7.6082C40.9261 7.6082 39.3736 6.05564 39.3837 4.13777ZM58.6436 4.13779C58.6436 2.23007 60.1961 0.677507 62.114 0.66736C64.0217 0.66736 65.5743 2.21992 65.5844 4.13779C65.5844 6.04551 64.0319 7.59807 62.114 7.60821C60.1961 7.59807 58.6436 6.04551 58.6436 4.13779ZM77.9034 4.13779C77.9034 2.23007 79.456 0.677508 81.3739 0.66736C83.2816 0.66736 84.8341 2.21992 84.8443 4.13779C84.8443 6.04551 83.2917 7.59806 81.3739 7.60821C79.4662 7.60821 77.9034 6.04551 77.9034 4.13779Z" fill="#fff"/>
</svg>
