<svg width="293" height="293" viewBox="0 0 293 293" fill="none" xmlns="http://www.w3.org/2000/svg">
<circle cx="146.5" cy="146.5" r="146.5" fill="url(#paint0_linear)"/>
<circle cx="146.5" cy="146.5" r="146.5" fill="#FF7575"/>
<defs>
<linearGradient id="paint0_linear" x1="146.5" y1="0" x2="146.5" y2="293" gradientUnits="userSpaceOnUse">
<stop stop-color="#FF8341"/>
<stop offset="1" stop-color="#FF8341" stop-opacity="0"/>
</linearGradient>
</defs>
</svg>
